GFORTRAN module version '6' created from functions.f90 on Wed May 22 19:12:25 2013
MD5:933e0cbdba5f27e9d4467fae24ece2e4 -- If you edit this, you'll get what you deserve.

(() () () () () () () () () () () () () () () () () () () () () () ()
() () () ())

()

(('omp_get_ancestor_thread_num' 'omp_lib' 2 3) ('omp_get_team_size'
'omp_lib' 4 5) ('omp_get_schedule' 'omp_lib' 6 7) (
'omp_set_max_active_levels' 'omp_lib' 8 9) ('omp_set_nested' 'omp_lib'
10 11) ('omp_set_schedule' 'omp_lib' 12 13) ('omp_set_num_threads'
'omp_lib' 14 15) ('omp_set_dynamic' 'omp_lib' 16 17))

()

()

()

(18 'f' 'functions' 'f' 1 ((PROCEDURE UNKNOWN-INTENT MODULE-PROC DECL
UNKNOWN 0 0 FUNCTION) (REAL 8 0 0 REAL ()) 19 0 (20) () 18 () () () 0 0)
21 'fevals' 'functions' 'fevals' 1 ((VARIABLE UNKNOWN-INTENT
UNKNOWN-PROC UNKNOWN EXPLICIT-SAVE 0 0 DIMENSION) (INTEGER 4 0 0 INTEGER
()) 0 0 () (1 0 EXPLICIT (CONSTANT (INTEGER 4 0 0 INTEGER ()) 0 '0') (
CONSTANT (INTEGER 4 0 0 INTEGER ()) 0 '7')) 0 () () () 0 0)
22 'functions' 'functions' 'functions' 1 ((MODULE UNKNOWN-INTENT
UNKNOWN-PROC UNKNOWN UNKNOWN 0 0) (UNKNOWN 0 0 0 UNKNOWN ()) 0 0 () () 0
() () () 0 0)
23 'k' 'functions' 'k' 1 ((VARIABLE UNKNOWN-INTENT UNKNOWN-PROC UNKNOWN
EXPLICIT-SAVE 0 0) (REAL 8 0 0 REAL ()) 0 0 () () 0 () () () 0 0)
24 'omp_destroy_lock' 'omp_lib' 'omp_destroy_lock' 1 ((PROCEDURE
UNKNOWN-INTENT MODULE-PROC BODY UNKNOWN 0 0 EXTERNAL SUBROUTINE) (
UNKNOWN 0 0 0 UNKNOWN ()) 25 0 (26) () 0 () () () 0 0)
27 'omp_destroy_nest_lock' 'omp_lib' 'omp_destroy_nest_lock' 1 ((
PROCEDURE UNKNOWN-INTENT MODULE-PROC BODY UNKNOWN 0 0 EXTERNAL
SUBROUTINE) (UNKNOWN 0 0 0 UNKNOWN ()) 28 0 (29) () 0 () () () 0 0)
30 'omp_get_active_level' 'omp_lib' 'omp_get_active_level' 1 ((
PROCEDURE UNKNOWN-INTENT MODULE-PROC BODY UNKNOWN 0 0 EXTERNAL FUNCTION)
(INTEGER 4 0 0 INTEGER ()) 31 0 () () 30 () () () 0 0)
3 'omp_get_ancestor_thread_num' 'omp_lib' 'omp_get_ancestor_thread_num'
1 ((PROCEDURE UNKNOWN-INTENT MODULE-PROC BODY UNKNOWN 0 0 EXTERNAL
FUNCTION GENERIC) (INTEGER 4 0 0 INTEGER ()) 32 0 (33) () 3 () () () 0 0)
2 'omp_get_ancestor_thread_num_8' 'omp_lib'
'omp_get_ancestor_thread_num_8' 1 ((PROCEDURE UNKNOWN-INTENT MODULE-PROC
BODY UNKNOWN 0 0 EXTERNAL FUNCTION) (INTEGER 4 0 0 INTEGER ()) 34 0 (35)
() 2 () () () 0 0)
36 'omp_get_dynamic' 'omp_lib' 'omp_get_dynamic' 1 ((PROCEDURE
UNKNOWN-INTENT MODULE-PROC BODY UNKNOWN 0 0 EXTERNAL FUNCTION) (LOGICAL
4 0 0 LOGICAL ()) 37 0 () () 36 () () () 0 0)
38 'omp_get_level' 'omp_lib' 'omp_get_level' 1 ((PROCEDURE
UNKNOWN-INTENT MODULE-PROC BODY UNKNOWN 0 0 EXTERNAL FUNCTION) (INTEGER
4 0 0 INTEGER ()) 39 0 () () 38 () () () 0 0)
40 'omp_get_max_active_levels' 'omp_lib' 'omp_get_max_active_levels' 1 (
(PROCEDURE UNKNOWN-INTENT MODULE-PROC BODY UNKNOWN 0 0 EXTERNAL FUNCTION)
(INTEGER 4 0 0 INTEGER ()) 41 0 () () 40 () () () 0 0)
42 'omp_get_max_threads' 'omp_lib' 'omp_get_max_threads' 1 ((PROCEDURE
UNKNOWN-INTENT MODULE-PROC BODY UNKNOWN 0 0 EXTERNAL FUNCTION) (INTEGER
4 0 0 INTEGER ()) 43 0 () () 42 () () () 0 0)
44 'omp_get_nested' 'omp_lib' 'omp_get_nested' 1 ((PROCEDURE
UNKNOWN-INTENT MODULE-PROC BODY UNKNOWN 0 0 EXTERNAL FUNCTION) (LOGICAL
4 0 0 LOGICAL ()) 45 0 () () 44 () () () 0 0)
46 'omp_get_num_procs' 'omp_lib' 'omp_get_num_procs' 1 ((PROCEDURE
UNKNOWN-INTENT MODULE-PROC BODY UNKNOWN 0 0 EXTERNAL FUNCTION) (INTEGER
4 0 0 INTEGER ()) 47 0 () () 46 () () () 0 0)
48 'omp_get_num_threads' 'omp_lib' 'omp_get_num_threads' 1 ((PROCEDURE
UNKNOWN-INTENT MODULE-PROC BODY UNKNOWN 0 0 EXTERNAL FUNCTION) (INTEGER
4 0 0 INTEGER ()) 49 0 () () 48 () () () 0 0)
7 'omp_get_schedule' 'omp_lib' 'omp_get_schedule' 1 ((PROCEDURE
UNKNOWN-INTENT MODULE-PROC BODY UNKNOWN 0 0 EXTERNAL SUBROUTINE GENERIC)
(UNKNOWN 0 0 0 UNKNOWN ()) 50 0 (51 52) () 0 () () () 0 0)
6 'omp_get_schedule_8' 'omp_lib' 'omp_get_schedule_8' 1 ((PROCEDURE
UNKNOWN-INTENT MODULE-PROC BODY UNKNOWN 0 0 EXTERNAL SUBROUTINE) (
UNKNOWN 0 0 0 UNKNOWN ()) 53 0 (54 55) () 0 () () () 0 0)
5 'omp_get_team_size' 'omp_lib' 'omp_get_team_size' 1 ((PROCEDURE
UNKNOWN-INTENT MODULE-PROC BODY UNKNOWN 0 0 EXTERNAL FUNCTION GENERIC) (
INTEGER 4 0 0 INTEGER ()) 56 0 (57) () 5 () () () 0 0)
4 'omp_get_team_size_8' 'omp_lib' 'omp_get_team_size_8' 1 ((PROCEDURE
UNKNOWN-INTENT MODULE-PROC BODY UNKNOWN 0 0 EXTERNAL FUNCTION) (INTEGER
4 0 0 INTEGER ()) 58 0 (59) () 4 () () () 0 0)
60 'omp_get_thread_limit' 'omp_lib' 'omp_get_thread_limit' 1 ((
PROCEDURE UNKNOWN-INTENT MODULE-PROC BODY UNKNOWN 0 0 EXTERNAL FUNCTION)
(INTEGER 4 0 0 INTEGER ()) 61 0 () () 60 () () () 0 0)
62 'omp_get_thread_num' 'omp_lib' 'omp_get_thread_num' 1 ((PROCEDURE
UNKNOWN-INTENT EXTERNAL-PROC BODY UNKNOWN 0 0 EXTERNAL FUNCTION) (
INTEGER 4 0 0 INTEGER ()) 63 0 () () 62 () () () 0 0)
64 'omp_get_wtick' 'omp_lib' 'omp_get_wtick' 1 ((PROCEDURE
UNKNOWN-INTENT MODULE-PROC BODY UNKNOWN 0 0 EXTERNAL FUNCTION) (REAL 8 0
0 REAL ()) 65 0 () () 64 () () () 0 0)
66 'omp_get_wtime' 'omp_lib' 'omp_get_wtime' 1 ((PROCEDURE
UNKNOWN-INTENT MODULE-PROC BODY UNKNOWN 0 0 EXTERNAL FUNCTION) (REAL 8 0
0 REAL ()) 67 0 () () 66 () () () 0 0)
68 'omp_in_parallel' 'omp_lib' 'omp_in_parallel' 1 ((PROCEDURE
UNKNOWN-INTENT MODULE-PROC BODY UNKNOWN 0 0 EXTERNAL FUNCTION) (LOGICAL
4 0 0 LOGICAL ()) 69 0 () () 68 () () () 0 0)
70 'omp_init_lock' 'omp_lib' 'omp_init_lock' 1 ((PROCEDURE
UNKNOWN-INTENT MODULE-PROC BODY UNKNOWN 0 0 EXTERNAL SUBROUTINE) (
UNKNOWN 0 0 0 UNKNOWN ()) 71 0 (72) () 0 () () () 0 0)
73 'omp_init_nest_lock' 'omp_lib' 'omp_init_nest_lock' 1 ((PROCEDURE
UNKNOWN-INTENT MODULE-PROC BODY UNKNOWN 0 0 EXTERNAL SUBROUTINE) (
UNKNOWN 0 0 0 UNKNOWN ()) 74 0 (75) () 0 () () () 0 0)
76 'omp_integer_kind' 'omp_lib_kinds' 'omp_integer_kind' 1 ((PARAMETER
UNKNOWN-INTENT UNKNOWN-PROC UNKNOWN IMPLICIT-SAVE 0 0) (INTEGER 4 0 0
INTEGER ()) 0 0 () (CONSTANT (INTEGER 4 0 0 INTEGER ()) 0 '4') () 0 () ()
() 0 0)
77 'omp_lib' 'omp_lib' 'omp_lib' 1 ((MODULE UNKNOWN-INTENT UNKNOWN-PROC
UNKNOWN UNKNOWN 0 0) (UNKNOWN 0 0 0 UNKNOWN ()) 0 0 () () 0 () () () 0 0)
78 'omp_lib_kinds' 'omp_lib_kinds' 'omp_lib_kinds' 1 ((MODULE
UNKNOWN-INTENT UNKNOWN-PROC UNKNOWN UNKNOWN 0 0) (UNKNOWN 0 0 0 UNKNOWN
()) 0 0 () () 0 () () () 0 0)
79 'omp_lock_kind' 'omp_lib_kinds' 'omp_lock_kind' 1 ((PARAMETER
UNKNOWN-INTENT UNKNOWN-PROC UNKNOWN IMPLICIT-SAVE 0 0) (INTEGER 4 0 0
INTEGER ()) 0 0 () (CONSTANT (INTEGER 4 0 0 INTEGER ()) 0 '4') () 0 () ()
() 0 0)
80 'omp_logical_kind' 'omp_lib_kinds' 'omp_logical_kind' 1 ((PARAMETER
UNKNOWN-INTENT UNKNOWN-PROC UNKNOWN IMPLICIT-SAVE 0 0) (INTEGER 4 0 0
INTEGER ()) 0 0 () (CONSTANT (INTEGER 4 0 0 INTEGER ()) 0 '4') () 0 () ()
() 0 0)
81 'omp_nest_lock_kind' 'omp_lib_kinds' 'omp_nest_lock_kind' 1 ((
PARAMETER UNKNOWN-INTENT UNKNOWN-PROC UNKNOWN IMPLICIT-SAVE 0 0) (
INTEGER 4 0 0 INTEGER ()) 0 0 () (CONSTANT (INTEGER 4 0 0 INTEGER ()) 0
'8') () 0 () () () 0 0)
82 'omp_sched_auto' 'omp_lib' 'omp_sched_auto' 1 ((PARAMETER
UNKNOWN-INTENT UNKNOWN-PROC UNKNOWN IMPLICIT-SAVE 0 0) (INTEGER 4 0 0
INTEGER ()) 0 0 () (CONSTANT (INTEGER 4 0 0 INTEGER ()) 0 '4') () 0 () ()
() 0 0)
83 'omp_sched_dynamic' 'omp_lib' 'omp_sched_dynamic' 1 ((PARAMETER
UNKNOWN-INTENT UNKNOWN-PROC UNKNOWN IMPLICIT-SAVE 0 0) (INTEGER 4 0 0
INTEGER ()) 0 0 () (CONSTANT (INTEGER 4 0 0 INTEGER ()) 0 '2') () 0 () ()
() 0 0)
84 'omp_sched_guided' 'omp_lib' 'omp_sched_guided' 1 ((PARAMETER
UNKNOWN-INTENT UNKNOWN-PROC UNKNOWN IMPLICIT-SAVE 0 0) (INTEGER 4 0 0
INTEGER ()) 0 0 () (CONSTANT (INTEGER 4 0 0 INTEGER ()) 0 '3') () 0 () ()
() 0 0)
85 'omp_sched_kind' 'omp_lib_kinds' 'omp_sched_kind' 1 ((PARAMETER
UNKNOWN-INTENT UNKNOWN-PROC UNKNOWN IMPLICIT-SAVE 0 0) (INTEGER 4 0 0
INTEGER ()) 0 0 () (CONSTANT (INTEGER 4 0 0 INTEGER ()) 0 '4') () 0 () ()
() 0 0)
86 'omp_sched_static' 'omp_lib' 'omp_sched_static' 1 ((PARAMETER
UNKNOWN-INTENT UNKNOWN-PROC UNKNOWN IMPLICIT-SAVE 0 0) (INTEGER 4 0 0
INTEGER ()) 0 0 () (CONSTANT (INTEGER 4 0 0 INTEGER ()) 0 '1') () 0 () ()
() 0 0)
17 'omp_set_dynamic' 'omp_lib' 'omp_set_dynamic' 1 ((PROCEDURE
UNKNOWN-INTENT MODULE-PROC BODY UNKNOWN 0 0 EXTERNAL SUBROUTINE GENERIC)
(UNKNOWN 0 0 0 UNKNOWN ()) 87 0 (88) () 0 () () () 0 0)
16 'omp_set_dynamic_8' 'omp_lib' 'omp_set_dynamic_8' 1 ((PROCEDURE
UNKNOWN-INTENT MODULE-PROC BODY UNKNOWN 0 0 EXTERNAL SUBROUTINE) (
UNKNOWN 0 0 0 UNKNOWN ()) 89 0 (90) () 0 () () () 0 0)
91 'omp_set_lock' 'omp_lib' 'omp_set_lock' 1 ((PROCEDURE UNKNOWN-INTENT
MODULE-PROC BODY UNKNOWN 0 0 EXTERNAL SUBROUTINE) (UNKNOWN 0 0 0 UNKNOWN
()) 92 0 (93) () 0 () () () 0 0)
9 'omp_set_max_active_levels' 'omp_lib' 'omp_set_max_active_levels' 1 (
(PROCEDURE UNKNOWN-INTENT MODULE-PROC BODY UNKNOWN 0 0 EXTERNAL
SUBROUTINE GENERIC) (UNKNOWN 0 0 0 UNKNOWN ()) 94 0 (95) () 0 () () () 0
0)
8 'omp_set_max_active_levels_8' 'omp_lib' 'omp_set_max_active_levels_8'
1 ((PROCEDURE UNKNOWN-INTENT MODULE-PROC BODY UNKNOWN 0 0 EXTERNAL
SUBROUTINE) (UNKNOWN 0 0 0 UNKNOWN ()) 96 0 (97) () 0 () () () 0 0)
98 'omp_set_nest_lock' 'omp_lib' 'omp_set_nest_lock' 1 ((PROCEDURE
UNKNOWN-INTENT MODULE-PROC BODY UNKNOWN 0 0 EXTERNAL SUBROUTINE) (
UNKNOWN 0 0 0 UNKNOWN ()) 99 0 (100) () 0 () () () 0 0)
11 'omp_set_nested' 'omp_lib' 'omp_set_nested' 1 ((PROCEDURE
UNKNOWN-INTENT MODULE-PROC BODY UNKNOWN 0 0 EXTERNAL SUBROUTINE GENERIC)
(UNKNOWN 0 0 0 UNKNOWN ()) 101 0 (102) () 0 () () () 0 0)
10 'omp_set_nested_8' 'omp_lib' 'omp_set_nested_8' 1 ((PROCEDURE
UNKNOWN-INTENT MODULE-PROC BODY UNKNOWN 0 0 EXTERNAL SUBROUTINE) (
UNKNOWN 0 0 0 UNKNOWN ()) 103 0 (104) () 0 () () () 0 0)
15 'omp_set_num_threads' 'omp_lib' 'omp_set_num_threads' 1 ((PROCEDURE
UNKNOWN-INTENT MODULE-PROC BODY UNKNOWN 0 0 EXTERNAL SUBROUTINE GENERIC)
(UNKNOWN 0 0 0 UNKNOWN ()) 105 0 (106) () 0 () () () 0 0)
14 'omp_set_num_threads_8' 'omp_lib' 'omp_set_num_threads_8' 1 ((
PROCEDURE UNKNOWN-INTENT MODULE-PROC BODY UNKNOWN 0 0 EXTERNAL
SUBROUTINE) (UNKNOWN 0 0 0 UNKNOWN ()) 107 0 (108) () 0 () () () 0 0)
13 'omp_set_schedule' 'omp_lib' 'omp_set_schedule' 1 ((PROCEDURE
UNKNOWN-INTENT MODULE-PROC BODY UNKNOWN 0 0 EXTERNAL SUBROUTINE GENERIC)
(UNKNOWN 0 0 0 UNKNOWN ()) 109 0 (110 111) () 0 () () () 0 0)
12 'omp_set_schedule_8' 'omp_lib' 'omp_set_schedule_8' 1 ((PROCEDURE
UNKNOWN-INTENT MODULE-PROC BODY UNKNOWN 0 0 EXTERNAL SUBROUTINE) (
UNKNOWN 0 0 0 UNKNOWN ()) 112 0 (113 114) () 0 () () () 0 0)
115 'omp_test_lock' 'omp_lib' 'omp_test_lock' 1 ((PROCEDURE
UNKNOWN-INTENT MODULE-PROC BODY UNKNOWN 0 0 EXTERNAL FUNCTION) (LOGICAL
4 0 0 LOGICAL ()) 116 0 (117) () 115 () () () 0 0)
118 'omp_test_nest_lock' 'omp_lib' 'omp_test_nest_lock' 1 ((PROCEDURE
UNKNOWN-INTENT MODULE-PROC BODY UNKNOWN 0 0 EXTERNAL FUNCTION) (INTEGER
4 0 0 INTEGER ()) 119 0 (120) () 118 () () () 0 0)
121 'omp_unset_lock' 'omp_lib' 'omp_unset_lock' 1 ((PROCEDURE
UNKNOWN-INTENT MODULE-PROC BODY UNKNOWN 0 0 EXTERNAL SUBROUTINE) (
UNKNOWN 0 0 0 UNKNOWN ()) 122 0 (123) () 0 () () () 0 0)
124 'omp_unset_nest_lock' 'omp_lib' 'omp_unset_nest_lock' 1 ((PROCEDURE
UNKNOWN-INTENT MODULE-PROC BODY UNKNOWN 0 0 EXTERNAL SUBROUTINE) (
UNKNOWN 0 0 0 UNKNOWN ()) 125 0 (126) () 0 () () () 0 0)
127 'openmp_version' 'omp_lib' 'openmp_version' 1 ((PARAMETER
UNKNOWN-INTENT UNKNOWN-PROC UNKNOWN IMPLICIT-SAVE 0 0) (INTEGER 4 0 0
INTEGER ()) 0 0 () (CONSTANT (INTEGER 4 0 0 INTEGER ()) 0 '200805') () 0
() () () 0 0)
20 'x' '' 'x' 19 ((VARIABLE IN UNKNOWN-PROC UNKNOWN UNKNOWN 0 0 DUMMY) (
REAL 8 0 0 REAL ()) 0 0 () () 0 () () () 0 0)
29 'lock' '' 'lock' 28 ((VARIABLE INOUT UNKNOWN-PROC UNKNOWN UNKNOWN 0 0
DUMMY) (INTEGER 8 0 0 INTEGER ()) 0 0 () () 0 () () () 0 0)
26 'lock' '' 'lock' 25 ((VARIABLE INOUT UNKNOWN-PROC UNKNOWN UNKNOWN 0 0
DUMMY) (INTEGER 4 0 0 INTEGER ()) 0 0 () () 0 () () () 0 0)
75 'lock' '' 'lock' 74 ((VARIABLE OUT UNKNOWN-PROC UNKNOWN UNKNOWN 0 0
DUMMY) (INTEGER 8 0 0 INTEGER ()) 0 0 () () 0 () () () 0 0)
72 'lock' '' 'lock' 71 ((VARIABLE OUT UNKNOWN-PROC UNKNOWN UNKNOWN 0 0
DUMMY) (INTEGER 4 0 0 INTEGER ()) 0 0 () () 0 () () () 0 0)
88 'set' '' 'set' 87 ((VARIABLE IN UNKNOWN-PROC UNKNOWN UNKNOWN 0 0
DUMMY) (LOGICAL 4 0 0 LOGICAL ()) 0 0 () () 0 () () () 0 0)
90 'set' '' 'set' 89 ((VARIABLE IN UNKNOWN-PROC UNKNOWN UNKNOWN 0 0
DUMMY) (LOGICAL 8 0 0 LOGICAL ()) 0 0 () () 0 () () () 0 0)
95 'max_levels' '' 'max_levels' 94 ((VARIABLE IN UNKNOWN-PROC UNKNOWN
UNKNOWN 0 0 DUMMY) (INTEGER 4 0 0 INTEGER ()) 0 0 () () 0 () () () 0 0)
97 'max_levels' '' 'max_levels' 96 ((VARIABLE IN UNKNOWN-PROC UNKNOWN
UNKNOWN 0 0 DUMMY) (INTEGER 8 0 0 INTEGER ()) 0 0 () () 0 () () () 0 0)
93 'lock' '' 'lock' 92 ((VARIABLE INOUT UNKNOWN-PROC UNKNOWN UNKNOWN 0 0
DUMMY) (INTEGER 4 0 0 INTEGER ()) 0 0 () () 0 () () () 0 0)
102 'set' '' 'set' 101 ((VARIABLE IN UNKNOWN-PROC UNKNOWN UNKNOWN 0 0
DUMMY) (LOGICAL 4 0 0 LOGICAL ()) 0 0 () () 0 () () () 0 0)
104 'set' '' 'set' 103 ((VARIABLE IN UNKNOWN-PROC UNKNOWN UNKNOWN 0 0
DUMMY) (LOGICAL 8 0 0 LOGICAL ()) 0 0 () () 0 () () () 0 0)
106 'set' '' 'set' 105 ((VARIABLE IN UNKNOWN-PROC UNKNOWN UNKNOWN 0 0
DUMMY) (INTEGER 4 0 0 INTEGER ()) 0 0 () () 0 () () () 0 0)
111 'modifier' '' 'modifier' 109 ((VARIABLE IN UNKNOWN-PROC UNKNOWN
UNKNOWN 0 0 DUMMY) (INTEGER 4 0 0 INTEGER ()) 0 0 () () 0 () () () 0 0)
113 'kind' '' 'kind' 112 ((VARIABLE IN UNKNOWN-PROC UNKNOWN UNKNOWN 0 0
DUMMY) (INTEGER 4 0 0 INTEGER ()) 0 0 () () 0 () () () 0 0)
114 'modifier' '' 'modifier' 112 ((VARIABLE IN UNKNOWN-PROC UNKNOWN
UNKNOWN 0 0 DUMMY) (INTEGER 8 0 0 INTEGER ()) 0 0 () () 0 () () () 0 0)
110 'kind' '' 'kind' 109 ((VARIABLE IN UNKNOWN-PROC UNKNOWN UNKNOWN 0 0
DUMMY) (INTEGER 4 0 0 INTEGER ()) 0 0 () () 0 () () () 0 0)
108 'set' '' 'set' 107 ((VARIABLE IN UNKNOWN-PROC UNKNOWN UNKNOWN 0 0
DUMMY) (INTEGER 8 0 0 INTEGER ()) 0 0 () () 0 () () () 0 0)
123 'lock' '' 'lock' 122 ((VARIABLE INOUT UNKNOWN-PROC UNKNOWN UNKNOWN 0
0 DUMMY) (INTEGER 4 0 0 INTEGER ()) 0 0 () () 0 () () () 0 0)
126 'lock' '' 'lock' 125 ((VARIABLE INOUT UNKNOWN-PROC UNKNOWN UNKNOWN 0
0 DUMMY) (INTEGER 8 0 0 INTEGER ()) 0 0 () () 0 () () () 0 0)
120 'lock' '' 'lock' 119 ((VARIABLE INOUT UNKNOWN-PROC UNKNOWN UNKNOWN 0
0 DUMMY) (INTEGER 8 0 0 INTEGER ()) 0 0 () () 0 () () () 0 0)
33 'level' '' 'level' 32 ((VARIABLE IN UNKNOWN-PROC UNKNOWN UNKNOWN 0 0
DUMMY) (INTEGER 4 0 0 INTEGER ()) 0 0 () () 0 () () () 0 0)
35 'level' '' 'level' 34 ((VARIABLE IN UNKNOWN-PROC UNKNOWN UNKNOWN 0 0
DUMMY) (INTEGER 8 0 0 INTEGER ()) 0 0 () () 0 () () () 0 0)
51 'kind' '' 'kind' 50 ((VARIABLE OUT UNKNOWN-PROC UNKNOWN UNKNOWN 0 0
DUMMY) (INTEGER 4 0 0 INTEGER ()) 0 0 () () 0 () () () 0 0)
55 'modifier' '' 'modifier' 53 ((VARIABLE OUT UNKNOWN-PROC UNKNOWN
UNKNOWN 0 0 DUMMY) (INTEGER 8 0 0 INTEGER ()) 0 0 () () 0 () () () 0 0)
54 'kind' '' 'kind' 53 ((VARIABLE OUT UNKNOWN-PROC UNKNOWN UNKNOWN 0 0
DUMMY) (INTEGER 4 0 0 INTEGER ()) 0 0 () () 0 () () () 0 0)
52 'modifier' '' 'modifier' 50 ((VARIABLE OUT UNKNOWN-PROC UNKNOWN
UNKNOWN 0 0 DUMMY) (INTEGER 4 0 0 INTEGER ()) 0 0 () () 0 () () () 0 0)
57 'level' '' 'level' 56 ((VARIABLE IN UNKNOWN-PROC UNKNOWN UNKNOWN 0 0
DUMMY) (INTEGER 4 0 0 INTEGER ()) 0 0 () () 0 () () () 0 0)
59 'level' '' 'level' 58 ((VARIABLE IN UNKNOWN-PROC UNKNOWN UNKNOWN 0 0
DUMMY) (INTEGER 8 0 0 INTEGER ()) 0 0 () () 0 () () () 0 0)
100 'lock' '' 'lock' 99 ((VARIABLE INOUT UNKNOWN-PROC UNKNOWN UNKNOWN 0
0 DUMMY) (INTEGER 8 0 0 INTEGER ()) 0 0 () () 0 () () () 0 0)
117 'lock' '' 'lock' 116 ((VARIABLE INOUT UNKNOWN-PROC UNKNOWN UNKNOWN 0
0 DUMMY) (INTEGER 4 0 0 INTEGER ()) 0 0 () () 0 () () () 0 0)
)

('f' 0 18 'fevals' 0 21 'functions' 0 22 'k' 0 23 'omp_destroy_lock' 0
24 'omp_destroy_nest_lock' 0 27 'omp_get_active_level' 0 30
'omp_get_ancestor_thread_num' 0 3 'omp_get_ancestor_thread_num_8' 0 2
'omp_get_dynamic' 0 36 'omp_get_level' 0 38 'omp_get_max_active_levels'
0 40 'omp_get_max_threads' 0 42 'omp_get_nested' 0 44 'omp_get_num_procs'
0 46 'omp_get_num_threads' 0 48 'omp_get_schedule' 0 7
'omp_get_schedule_8' 0 6 'omp_get_team_size' 0 5 'omp_get_team_size_8' 0
4 'omp_get_thread_limit' 0 60 'omp_get_thread_num' 0 62 'omp_get_wtick'
0 64 'omp_get_wtime' 0 66 'omp_in_parallel' 0 68 'omp_init_lock' 0 70
'omp_init_nest_lock' 0 73 'omp_integer_kind' 0 76 'omp_lib' 0 77
'omp_lib_kinds' 0 78 'omp_lock_kind' 0 79 'omp_logical_kind' 0 80
'omp_nest_lock_kind' 0 81 'omp_sched_auto' 0 82 'omp_sched_dynamic' 0 83
'omp_sched_guided' 0 84 'omp_sched_kind' 0 85 'omp_sched_static' 0 86
'omp_set_dynamic' 0 17 'omp_set_dynamic_8' 0 16 'omp_set_lock' 0 91
'omp_set_max_active_levels' 0 9 'omp_set_max_active_levels_8' 0 8
'omp_set_nest_lock' 0 98 'omp_set_nested' 0 11 'omp_set_nested_8' 0 10
'omp_set_num_threads' 0 15 'omp_set_num_threads_8' 0 14 'omp_set_schedule'
0 13 'omp_set_schedule_8' 0 12 'omp_test_lock' 0 115 'omp_test_nest_lock'
0 118 'omp_unset_lock' 0 121 'omp_unset_nest_lock' 0 124 'openmp_version'
0 127)
