GFORTRAN module version '6' created from quadrature3.f90 on Wed May 22 20:22:02 2013
MD5:2f90815ee27e182cc020e8d1634b8bdc -- If you edit this, you'll get what you deserve.

(() () () () () () () () () () () () () () () () () () () () () () ()
() () () ())

()

(('omp_get_ancestor_thread_num' 'omp_lib' 2 3) ('omp_get_team_size'
'omp_lib' 4 5) ('omp_get_schedule' 'omp_lib' 6 7) (
'omp_set_max_active_levels' 'omp_lib' 8 9) ('omp_set_nested' 'omp_lib'
10 11) ('omp_set_schedule' 'omp_lib' 12 13) ('omp_set_num_threads'
'omp_lib' 14 15) ('omp_set_dynamic' 'omp_lib' 16 17))

()

()

()

(18 'error_table' 'quadrature2' 'error_table' 1 ((PROCEDURE
UNKNOWN-INTENT MODULE-PROC DECL UNKNOWN 0 0 SUBROUTINE ALWAYS_EXPLICIT)
(UNKNOWN 0 0 0 UNKNOWN ()) 19 0 (20 21 22 23 24 25) () 0 () () () 0 0)
26 'omp_destroy_lock' 'omp_lib' 'omp_destroy_lock' 1 ((PROCEDURE
UNKNOWN-INTENT MODULE-PROC BODY UNKNOWN 0 0 EXTERNAL SUBROUTINE) (
UNKNOWN 0 0 0 UNKNOWN ()) 27 0 (28) () 0 () () () 0 0)
29 'omp_destroy_nest_lock' 'omp_lib' 'omp_destroy_nest_lock' 1 ((
PROCEDURE UNKNOWN-INTENT MODULE-PROC BODY UNKNOWN 0 0 EXTERNAL
SUBROUTINE) (UNKNOWN 0 0 0 UNKNOWN ()) 30 0 (31) () 0 () () () 0 0)
32 'omp_get_active_level' 'omp_lib' 'omp_get_active_level' 1 ((
PROCEDURE UNKNOWN-INTENT MODULE-PROC BODY UNKNOWN 0 0 EXTERNAL FUNCTION)
(INTEGER 4 0 0 INTEGER ()) 33 0 () () 32 () () () 0 0)
3 'omp_get_ancestor_thread_num' 'omp_lib' 'omp_get_ancestor_thread_num'
1 ((PROCEDURE UNKNOWN-INTENT MODULE-PROC BODY UNKNOWN 0 0 EXTERNAL
FUNCTION GENERIC) (INTEGER 4 0 0 INTEGER ()) 34 0 (35) () 3 () () () 0 0)
2 'omp_get_ancestor_thread_num_8' 'omp_lib'
'omp_get_ancestor_thread_num_8' 1 ((PROCEDURE UNKNOWN-INTENT MODULE-PROC
BODY UNKNOWN 0 0 EXTERNAL FUNCTION) (INTEGER 4 0 0 INTEGER ()) 36 0 (37)
() 2 () () () 0 0)
38 'omp_get_dynamic' 'omp_lib' 'omp_get_dynamic' 1 ((PROCEDURE
UNKNOWN-INTENT MODULE-PROC BODY UNKNOWN 0 0 EXTERNAL FUNCTION) (LOGICAL
4 0 0 LOGICAL ()) 39 0 () () 38 () () () 0 0)
40 'omp_get_level' 'omp_lib' 'omp_get_level' 1 ((PROCEDURE
UNKNOWN-INTENT MODULE-PROC BODY UNKNOWN 0 0 EXTERNAL FUNCTION) (INTEGER
4 0 0 INTEGER ()) 41 0 () () 40 () () () 0 0)
42 'omp_get_max_active_levels' 'omp_lib' 'omp_get_max_active_levels' 1 (
(PROCEDURE UNKNOWN-INTENT MODULE-PROC BODY UNKNOWN 0 0 EXTERNAL FUNCTION)
(INTEGER 4 0 0 INTEGER ()) 43 0 () () 42 () () () 0 0)
44 'omp_get_max_threads' 'omp_lib' 'omp_get_max_threads' 1 ((PROCEDURE
UNKNOWN-INTENT MODULE-PROC BODY UNKNOWN 0 0 EXTERNAL FUNCTION) (INTEGER
4 0 0 INTEGER ()) 45 0 () () 44 () () () 0 0)
46 'omp_get_nested' 'omp_lib' 'omp_get_nested' 1 ((PROCEDURE
UNKNOWN-INTENT MODULE-PROC BODY UNKNOWN 0 0 EXTERNAL FUNCTION) (LOGICAL
4 0 0 LOGICAL ()) 47 0 () () 46 () () () 0 0)
48 'omp_get_num_procs' 'omp_lib' 'omp_get_num_procs' 1 ((PROCEDURE
UNKNOWN-INTENT MODULE-PROC BODY UNKNOWN 0 0 EXTERNAL FUNCTION) (INTEGER
4 0 0 INTEGER ()) 49 0 () () 48 () () () 0 0)
50 'omp_get_num_threads' 'omp_lib' 'omp_get_num_threads' 1 ((PROCEDURE
UNKNOWN-INTENT MODULE-PROC BODY UNKNOWN 0 0 EXTERNAL FUNCTION) (INTEGER
4 0 0 INTEGER ()) 51 0 () () 50 () () () 0 0)
7 'omp_get_schedule' 'omp_lib' 'omp_get_schedule' 1 ((PROCEDURE
UNKNOWN-INTENT MODULE-PROC BODY UNKNOWN 0 0 EXTERNAL SUBROUTINE GENERIC)
(UNKNOWN 0 0 0 UNKNOWN ()) 52 0 (53 54) () 0 () () () 0 0)
6 'omp_get_schedule_8' 'omp_lib' 'omp_get_schedule_8' 1 ((PROCEDURE
UNKNOWN-INTENT MODULE-PROC BODY UNKNOWN 0 0 EXTERNAL SUBROUTINE) (
UNKNOWN 0 0 0 UNKNOWN ()) 55 0 (56 57) () 0 () () () 0 0)
5 'omp_get_team_size' 'omp_lib' 'omp_get_team_size' 1 ((PROCEDURE
UNKNOWN-INTENT MODULE-PROC BODY UNKNOWN 0 0 EXTERNAL FUNCTION GENERIC) (
INTEGER 4 0 0 INTEGER ()) 58 0 (59) () 5 () () () 0 0)
4 'omp_get_team_size_8' 'omp_lib' 'omp_get_team_size_8' 1 ((PROCEDURE
UNKNOWN-INTENT MODULE-PROC BODY UNKNOWN 0 0 EXTERNAL FUNCTION) (INTEGER
4 0 0 INTEGER ()) 60 0 (61) () 4 () () () 0 0)
62 'omp_get_thread_limit' 'omp_lib' 'omp_get_thread_limit' 1 ((
PROCEDURE UNKNOWN-INTENT MODULE-PROC BODY UNKNOWN 0 0 EXTERNAL FUNCTION)
(INTEGER 4 0 0 INTEGER ()) 63 0 () () 62 () () () 0 0)
64 'omp_get_thread_num' 'omp_lib' 'omp_get_thread_num' 1 ((PROCEDURE
UNKNOWN-INTENT MODULE-PROC BODY UNKNOWN 0 0 EXTERNAL FUNCTION) (INTEGER
4 0 0 INTEGER ()) 65 0 () () 64 () () () 0 0)
66 'omp_get_wtick' 'omp_lib' 'omp_get_wtick' 1 ((PROCEDURE
UNKNOWN-INTENT MODULE-PROC BODY UNKNOWN 0 0 EXTERNAL FUNCTION) (REAL 8 0
0 REAL ()) 67 0 () () 66 () () () 0 0)
68 'omp_get_wtime' 'omp_lib' 'omp_get_wtime' 1 ((PROCEDURE
UNKNOWN-INTENT MODULE-PROC BODY UNKNOWN 0 0 EXTERNAL FUNCTION) (REAL 8 0
0 REAL ()) 69 0 () () 68 () () () 0 0)
70 'omp_in_parallel' 'omp_lib' 'omp_in_parallel' 1 ((PROCEDURE
UNKNOWN-INTENT MODULE-PROC BODY UNKNOWN 0 0 EXTERNAL FUNCTION) (LOGICAL
4 0 0 LOGICAL ()) 71 0 () () 70 () () () 0 0)
72 'omp_init_lock' 'omp_lib' 'omp_init_lock' 1 ((PROCEDURE
UNKNOWN-INTENT MODULE-PROC BODY UNKNOWN 0 0 EXTERNAL SUBROUTINE) (
UNKNOWN 0 0 0 UNKNOWN ()) 73 0 (74) () 0 () () () 0 0)
75 'omp_init_nest_lock' 'omp_lib' 'omp_init_nest_lock' 1 ((PROCEDURE
UNKNOWN-INTENT MODULE-PROC BODY UNKNOWN 0 0 EXTERNAL SUBROUTINE) (
UNKNOWN 0 0 0 UNKNOWN ()) 76 0 (77) () 0 () () () 0 0)
78 'omp_integer_kind' 'omp_lib_kinds' 'omp_integer_kind' 1 ((PARAMETER
UNKNOWN-INTENT UNKNOWN-PROC UNKNOWN IMPLICIT-SAVE 0 0) (INTEGER 4 0 0
INTEGER ()) 0 0 () (CONSTANT (INTEGER 4 0 0 INTEGER ()) 0 '4') () 0 () ()
() 0 0)
79 'omp_lib' 'omp_lib' 'omp_lib' 1 ((MODULE UNKNOWN-INTENT UNKNOWN-PROC
UNKNOWN UNKNOWN 0 0) (UNKNOWN 0 0 0 UNKNOWN ()) 0 0 () () 0 () () () 0 0)
80 'omp_lib_kinds' 'omp_lib_kinds' 'omp_lib_kinds' 1 ((MODULE
UNKNOWN-INTENT UNKNOWN-PROC UNKNOWN UNKNOWN 0 0) (UNKNOWN 0 0 0 UNKNOWN
()) 0 0 () () 0 () () () 0 0)
81 'omp_lock_kind' 'omp_lib_kinds' 'omp_lock_kind' 1 ((PARAMETER
UNKNOWN-INTENT UNKNOWN-PROC UNKNOWN IMPLICIT-SAVE 0 0) (INTEGER 4 0 0
INTEGER ()) 0 0 () (CONSTANT (INTEGER 4 0 0 INTEGER ()) 0 '4') () 0 () ()
() 0 0)
82 'omp_logical_kind' 'omp_lib_kinds' 'omp_logical_kind' 1 ((PARAMETER
UNKNOWN-INTENT UNKNOWN-PROC UNKNOWN IMPLICIT-SAVE 0 0) (INTEGER 4 0 0
INTEGER ()) 0 0 () (CONSTANT (INTEGER 4 0 0 INTEGER ()) 0 '4') () 0 () ()
() 0 0)
83 'omp_nest_lock_kind' 'omp_lib_kinds' 'omp_nest_lock_kind' 1 ((
PARAMETER UNKNOWN-INTENT UNKNOWN-PROC UNKNOWN IMPLICIT-SAVE 0 0) (
INTEGER 4 0 0 INTEGER ()) 0 0 () (CONSTANT (INTEGER 4 0 0 INTEGER ()) 0
'8') () 0 () () () 0 0)
84 'omp_sched_auto' 'omp_lib' 'omp_sched_auto' 1 ((PARAMETER
UNKNOWN-INTENT UNKNOWN-PROC UNKNOWN IMPLICIT-SAVE 0 0) (INTEGER 4 0 0
INTEGER ()) 0 0 () (CONSTANT (INTEGER 4 0 0 INTEGER ()) 0 '4') () 0 () ()
() 0 0)
85 'omp_sched_dynamic' 'omp_lib' 'omp_sched_dynamic' 1 ((PARAMETER
UNKNOWN-INTENT UNKNOWN-PROC UNKNOWN IMPLICIT-SAVE 0 0) (INTEGER 4 0 0
INTEGER ()) 0 0 () (CONSTANT (INTEGER 4 0 0 INTEGER ()) 0 '2') () 0 () ()
() 0 0)
86 'omp_sched_guided' 'omp_lib' 'omp_sched_guided' 1 ((PARAMETER
UNKNOWN-INTENT UNKNOWN-PROC UNKNOWN IMPLICIT-SAVE 0 0) (INTEGER 4 0 0
INTEGER ()) 0 0 () (CONSTANT (INTEGER 4 0 0 INTEGER ()) 0 '3') () 0 () ()
() 0 0)
87 'omp_sched_kind' 'omp_lib_kinds' 'omp_sched_kind' 1 ((PARAMETER
UNKNOWN-INTENT UNKNOWN-PROC UNKNOWN IMPLICIT-SAVE 0 0) (INTEGER 4 0 0
INTEGER ()) 0 0 () (CONSTANT (INTEGER 4 0 0 INTEGER ()) 0 '4') () 0 () ()
() 0 0)
88 'omp_sched_static' 'omp_lib' 'omp_sched_static' 1 ((PARAMETER
UNKNOWN-INTENT UNKNOWN-PROC UNKNOWN IMPLICIT-SAVE 0 0) (INTEGER 4 0 0
INTEGER ()) 0 0 () (CONSTANT (INTEGER 4 0 0 INTEGER ()) 0 '1') () 0 () ()
() 0 0)
17 'omp_set_dynamic' 'omp_lib' 'omp_set_dynamic' 1 ((PROCEDURE
UNKNOWN-INTENT MODULE-PROC BODY UNKNOWN 0 0 EXTERNAL SUBROUTINE GENERIC)
(UNKNOWN 0 0 0 UNKNOWN ()) 89 0 (90) () 0 () () () 0 0)
16 'omp_set_dynamic_8' 'omp_lib' 'omp_set_dynamic_8' 1 ((PROCEDURE
UNKNOWN-INTENT MODULE-PROC BODY UNKNOWN 0 0 EXTERNAL SUBROUTINE) (
UNKNOWN 0 0 0 UNKNOWN ()) 91 0 (92) () 0 () () () 0 0)
93 'omp_set_lock' 'omp_lib' 'omp_set_lock' 1 ((PROCEDURE UNKNOWN-INTENT
MODULE-PROC BODY UNKNOWN 0 0 EXTERNAL SUBROUTINE) (UNKNOWN 0 0 0 UNKNOWN
()) 94 0 (95) () 0 () () () 0 0)
9 'omp_set_max_active_levels' 'omp_lib' 'omp_set_max_active_levels' 1 (
(PROCEDURE UNKNOWN-INTENT MODULE-PROC BODY UNKNOWN 0 0 EXTERNAL
SUBROUTINE GENERIC) (UNKNOWN 0 0 0 UNKNOWN ()) 96 0 (97) () 0 () () () 0
0)
8 'omp_set_max_active_levels_8' 'omp_lib' 'omp_set_max_active_levels_8'
1 ((PROCEDURE UNKNOWN-INTENT MODULE-PROC BODY UNKNOWN 0 0 EXTERNAL
SUBROUTINE) (UNKNOWN 0 0 0 UNKNOWN ()) 98 0 (99) () 0 () () () 0 0)
100 'omp_set_nest_lock' 'omp_lib' 'omp_set_nest_lock' 1 ((PROCEDURE
UNKNOWN-INTENT MODULE-PROC BODY UNKNOWN 0 0 EXTERNAL SUBROUTINE) (
UNKNOWN 0 0 0 UNKNOWN ()) 101 0 (102) () 0 () () () 0 0)
11 'omp_set_nested' 'omp_lib' 'omp_set_nested' 1 ((PROCEDURE
UNKNOWN-INTENT MODULE-PROC BODY UNKNOWN 0 0 EXTERNAL SUBROUTINE GENERIC)
(UNKNOWN 0 0 0 UNKNOWN ()) 103 0 (104) () 0 () () () 0 0)
10 'omp_set_nested_8' 'omp_lib' 'omp_set_nested_8' 1 ((PROCEDURE
UNKNOWN-INTENT MODULE-PROC BODY UNKNOWN 0 0 EXTERNAL SUBROUTINE) (
UNKNOWN 0 0 0 UNKNOWN ()) 105 0 (106) () 0 () () () 0 0)
15 'omp_set_num_threads' 'omp_lib' 'omp_set_num_threads' 1 ((PROCEDURE
UNKNOWN-INTENT MODULE-PROC BODY UNKNOWN 0 0 EXTERNAL SUBROUTINE GENERIC)
(UNKNOWN 0 0 0 UNKNOWN ()) 107 0 (108) () 0 () () () 0 0)
14 'omp_set_num_threads_8' 'omp_lib' 'omp_set_num_threads_8' 1 ((
PROCEDURE UNKNOWN-INTENT MODULE-PROC BODY UNKNOWN 0 0 EXTERNAL
SUBROUTINE) (UNKNOWN 0 0 0 UNKNOWN ()) 109 0 (110) () 0 () () () 0 0)
13 'omp_set_schedule' 'omp_lib' 'omp_set_schedule' 1 ((PROCEDURE
UNKNOWN-INTENT MODULE-PROC BODY UNKNOWN 0 0 EXTERNAL SUBROUTINE GENERIC)
(UNKNOWN 0 0 0 UNKNOWN ()) 111 0 (112 113) () 0 () () () 0 0)
12 'omp_set_schedule_8' 'omp_lib' 'omp_set_schedule_8' 1 ((PROCEDURE
UNKNOWN-INTENT MODULE-PROC BODY UNKNOWN 0 0 EXTERNAL SUBROUTINE) (
UNKNOWN 0 0 0 UNKNOWN ()) 114 0 (115 116) () 0 () () () 0 0)
117 'omp_test_lock' 'omp_lib' 'omp_test_lock' 1 ((PROCEDURE
UNKNOWN-INTENT MODULE-PROC BODY UNKNOWN 0 0 EXTERNAL FUNCTION) (LOGICAL
4 0 0 LOGICAL ()) 118 0 (119) () 117 () () () 0 0)
120 'omp_test_nest_lock' 'omp_lib' 'omp_test_nest_lock' 1 ((PROCEDURE
UNKNOWN-INTENT MODULE-PROC BODY UNKNOWN 0 0 EXTERNAL FUNCTION) (INTEGER
4 0 0 INTEGER ()) 121 0 (122) () 120 () () () 0 0)
123 'omp_unset_lock' 'omp_lib' 'omp_unset_lock' 1 ((PROCEDURE
UNKNOWN-INTENT MODULE-PROC BODY UNKNOWN 0 0 EXTERNAL SUBROUTINE) (
UNKNOWN 0 0 0 UNKNOWN ()) 124 0 (125) () 0 () () () 0 0)
126 'omp_unset_nest_lock' 'omp_lib' 'omp_unset_nest_lock' 1 ((PROCEDURE
UNKNOWN-INTENT MODULE-PROC BODY UNKNOWN 0 0 EXTERNAL SUBROUTINE) (
UNKNOWN 0 0 0 UNKNOWN ()) 127 0 (128) () 0 () () () 0 0)
129 'openmp_version' 'omp_lib' 'openmp_version' 1 ((PARAMETER
UNKNOWN-INTENT UNKNOWN-PROC UNKNOWN IMPLICIT-SAVE 0 0) (INTEGER 4 0 0
INTEGER ()) 0 0 () (CONSTANT (INTEGER 4 0 0 INTEGER ()) 0 '200805') () 0
() () () 0 0)
130 'quadrature2' 'quadrature2' 'quadrature2' 1 ((MODULE UNKNOWN-INTENT
UNKNOWN-PROC UNKNOWN UNKNOWN 0 0) (UNKNOWN 0 0 0 UNKNOWN ()) 0 0 () () 0
() () () 0 0)
131 'simpson' 'quadrature2' 'simpson' 1 ((PROCEDURE UNKNOWN-INTENT
MODULE-PROC DECL UNKNOWN 0 0 FUNCTION) (REAL 8 0 0 REAL ()) 132 0 (133
134 135 136) () 131 () () () 0 0)
137 'trapezoid' 'quadrature2' 'trapezoid' 1 ((PROCEDURE UNKNOWN-INTENT
MODULE-PROC DECL UNKNOWN 0 0 FUNCTION) (REAL 8 0 0 REAL ()) 138 0 (139
140 141 142) () 137 () () () 0 0)
133 'f' '' 'f' 132 ((PROCEDURE UNKNOWN-INTENT DUMMY-PROC UNKNOWN UNKNOWN
0 0 EXTERNAL DUMMY FUNCTION) (REAL 8 0 0 REAL ()) 0 0 () () 133 () () ()
0 0)
134 'a' '' 'a' 132 ((VARIABLE IN UNKNOWN-PROC UNKNOWN UNKNOWN 0 0 DUMMY)
(REAL 8 0 0 REAL ()) 0 0 () () 0 () () () 0 0)
135 'b' '' 'b' 132 ((VARIABLE IN UNKNOWN-PROC UNKNOWN UNKNOWN 0 0 DUMMY)
(REAL 8 0 0 REAL ()) 0 0 () () 0 () () () 0 0)
136 'n' '' 'n' 132 ((VARIABLE IN UNKNOWN-PROC UNKNOWN UNKNOWN 0 0 DUMMY)
(INTEGER 4 0 0 INTEGER ()) 0 0 () () 0 () () () 0 0)
139 'f' '' 'f' 138 ((PROCEDURE UNKNOWN-INTENT DUMMY-PROC UNKNOWN UNKNOWN
0 0 EXTERNAL DUMMY FUNCTION) (REAL 8 0 0 REAL ()) 0 0 () () 139 () () ()
0 0)
140 'a' '' 'a' 138 ((VARIABLE IN UNKNOWN-PROC UNKNOWN UNKNOWN 0 0 DUMMY)
(REAL 8 0 0 REAL ()) 0 0 () () 0 () () () 0 0)
141 'b' '' 'b' 138 ((VARIABLE IN UNKNOWN-PROC UNKNOWN UNKNOWN 0 0 DUMMY)
(REAL 8 0 0 REAL ()) 0 0 () () 0 () () () 0 0)
142 'n' '' 'n' 138 ((VARIABLE IN UNKNOWN-PROC UNKNOWN UNKNOWN 0 0 DUMMY)
(INTEGER 4 0 0 INTEGER ()) 0 0 () () 0 () () () 0 0)
20 'f' '' 'f' 19 ((PROCEDURE UNKNOWN-INTENT UNKNOWN-PROC UNKNOWN UNKNOWN
0 0 EXTERNAL DUMMY FUNCTION) (REAL 8 0 0 REAL ()) 0 0 () () 0 () () () 0
0)
21 'a' '' 'a' 19 ((VARIABLE IN UNKNOWN-PROC UNKNOWN UNKNOWN 0 0 DUMMY) (
REAL 8 0 0 REAL ()) 0 0 () () 0 () () () 0 0)
22 'b' '' 'b' 19 ((VARIABLE IN UNKNOWN-PROC UNKNOWN UNKNOWN 0 0 DUMMY) (
REAL 8 0 0 REAL ()) 0 0 () () 0 () () () 0 0)
31 'lock' '' 'lock' 30 ((VARIABLE INOUT UNKNOWN-PROC UNKNOWN UNKNOWN 0 0
DUMMY) (INTEGER 8 0 0 INTEGER ()) 0 0 () () 0 () () () 0 0)
28 'lock' '' 'lock' 27 ((VARIABLE INOUT UNKNOWN-PROC UNKNOWN UNKNOWN 0 0
DUMMY) (INTEGER 4 0 0 INTEGER ()) 0 0 () () 0 () () () 0 0)
77 'lock' '' 'lock' 76 ((VARIABLE OUT UNKNOWN-PROC UNKNOWN UNKNOWN 0 0
DUMMY) (INTEGER 8 0 0 INTEGER ()) 0 0 () () 0 () () () 0 0)
74 'lock' '' 'lock' 73 ((VARIABLE OUT UNKNOWN-PROC UNKNOWN UNKNOWN 0 0
DUMMY) (INTEGER 4 0 0 INTEGER ()) 0 0 () () 0 () () () 0 0)
90 'set' '' 'set' 89 ((VARIABLE IN UNKNOWN-PROC UNKNOWN UNKNOWN 0 0
DUMMY) (LOGICAL 4 0 0 LOGICAL ()) 0 0 () () 0 () () () 0 0)
92 'set' '' 'set' 91 ((VARIABLE IN UNKNOWN-PROC UNKNOWN UNKNOWN 0 0
DUMMY) (LOGICAL 8 0 0 LOGICAL ()) 0 0 () () 0 () () () 0 0)
97 'max_levels' '' 'max_levels' 96 ((VARIABLE IN UNKNOWN-PROC UNKNOWN
UNKNOWN 0 0 DUMMY) (INTEGER 4 0 0 INTEGER ()) 0 0 () () 0 () () () 0 0)
99 'max_levels' '' 'max_levels' 98 ((VARIABLE IN UNKNOWN-PROC UNKNOWN
UNKNOWN 0 0 DUMMY) (INTEGER 8 0 0 INTEGER ()) 0 0 () () 0 () () () 0 0)
95 'lock' '' 'lock' 94 ((VARIABLE INOUT UNKNOWN-PROC UNKNOWN UNKNOWN 0 0
DUMMY) (INTEGER 4 0 0 INTEGER ()) 0 0 () () 0 () () () 0 0)
104 'set' '' 'set' 103 ((VARIABLE IN UNKNOWN-PROC UNKNOWN UNKNOWN 0 0
DUMMY) (LOGICAL 4 0 0 LOGICAL ()) 0 0 () () 0 () () () 0 0)
106 'set' '' 'set' 105 ((VARIABLE IN UNKNOWN-PROC UNKNOWN UNKNOWN 0 0
DUMMY) (LOGICAL 8 0 0 LOGICAL ()) 0 0 () () 0 () () () 0 0)
108 'set' '' 'set' 107 ((VARIABLE IN UNKNOWN-PROC UNKNOWN UNKNOWN 0 0
DUMMY) (INTEGER 4 0 0 INTEGER ()) 0 0 () () 0 () () () 0 0)
113 'modifier' '' 'modifier' 111 ((VARIABLE IN UNKNOWN-PROC UNKNOWN
UNKNOWN 0 0 DUMMY) (INTEGER 4 0 0 INTEGER ()) 0 0 () () 0 () () () 0 0)
115 'kind' '' 'kind' 114 ((VARIABLE IN UNKNOWN-PROC UNKNOWN UNKNOWN 0 0
DUMMY) (INTEGER 4 0 0 INTEGER ()) 0 0 () () 0 () () () 0 0)
116 'modifier' '' 'modifier' 114 ((VARIABLE IN UNKNOWN-PROC UNKNOWN
UNKNOWN 0 0 DUMMY) (INTEGER 8 0 0 INTEGER ()) 0 0 () () 0 () () () 0 0)
112 'kind' '' 'kind' 111 ((VARIABLE IN UNKNOWN-PROC UNKNOWN UNKNOWN 0 0
DUMMY) (INTEGER 4 0 0 INTEGER ()) 0 0 () () 0 () () () 0 0)
110 'set' '' 'set' 109 ((VARIABLE IN UNKNOWN-PROC UNKNOWN UNKNOWN 0 0
DUMMY) (INTEGER 8 0 0 INTEGER ()) 0 0 () () 0 () () () 0 0)
125 'lock' '' 'lock' 124 ((VARIABLE INOUT UNKNOWN-PROC UNKNOWN UNKNOWN 0
0 DUMMY) (INTEGER 4 0 0 INTEGER ()) 0 0 () () 0 () () () 0 0)
128 'lock' '' 'lock' 127 ((VARIABLE INOUT UNKNOWN-PROC UNKNOWN UNKNOWN 0
0 DUMMY) (INTEGER 8 0 0 INTEGER ()) 0 0 () () 0 () () () 0 0)
122 'lock' '' 'lock' 121 ((VARIABLE INOUT UNKNOWN-PROC UNKNOWN UNKNOWN 0
0 DUMMY) (INTEGER 8 0 0 INTEGER ()) 0 0 () () 0 () () () 0 0)
35 'level' '' 'level' 34 ((VARIABLE IN UNKNOWN-PROC UNKNOWN UNKNOWN 0 0
DUMMY) (INTEGER 4 0 0 INTEGER ()) 0 0 () () 0 () () () 0 0)
37 'level' '' 'level' 36 ((VARIABLE IN UNKNOWN-PROC UNKNOWN UNKNOWN 0 0
DUMMY) (INTEGER 8 0 0 INTEGER ()) 0 0 () () 0 () () () 0 0)
53 'kind' '' 'kind' 52 ((VARIABLE OUT UNKNOWN-PROC UNKNOWN UNKNOWN 0 0
DUMMY) (INTEGER 4 0 0 INTEGER ()) 0 0 () () 0 () () () 0 0)
57 'modifier' '' 'modifier' 55 ((VARIABLE OUT UNKNOWN-PROC UNKNOWN
UNKNOWN 0 0 DUMMY) (INTEGER 8 0 0 INTEGER ()) 0 0 () () 0 () () () 0 0)
56 'kind' '' 'kind' 55 ((VARIABLE OUT UNKNOWN-PROC UNKNOWN UNKNOWN 0 0
DUMMY) (INTEGER 4 0 0 INTEGER ()) 0 0 () () 0 () () () 0 0)
54 'modifier' '' 'modifier' 52 ((VARIABLE OUT UNKNOWN-PROC UNKNOWN
UNKNOWN 0 0 DUMMY) (INTEGER 4 0 0 INTEGER ()) 0 0 () () 0 () () () 0 0)
59 'level' '' 'level' 58 ((VARIABLE IN UNKNOWN-PROC UNKNOWN UNKNOWN 0 0
DUMMY) (INTEGER 4 0 0 INTEGER ()) 0 0 () () 0 () () () 0 0)
61 'level' '' 'level' 60 ((VARIABLE IN UNKNOWN-PROC UNKNOWN UNKNOWN 0 0
DUMMY) (INTEGER 8 0 0 INTEGER ()) 0 0 () () 0 () () () 0 0)
102 'lock' '' 'lock' 101 ((VARIABLE INOUT UNKNOWN-PROC UNKNOWN UNKNOWN 0
0 DUMMY) (INTEGER 8 0 0 INTEGER ()) 0 0 () () 0 () () () 0 0)
119 'lock' '' 'lock' 118 ((VARIABLE INOUT UNKNOWN-PROC UNKNOWN UNKNOWN 0
0 DUMMY) (INTEGER 4 0 0 INTEGER ()) 0 0 () () 0 () () () 0 0)
23 'nvals' '' 'nvals' 19 ((VARIABLE IN UNKNOWN-PROC UNKNOWN UNKNOWN 0 0
DIMENSION DUMMY) (INTEGER 4 0 0 INTEGER ()) 0 0 () (1 0 ASSUMED_SHAPE (
CONSTANT (INTEGER 4 0 0 INTEGER ()) 0 '1') ()) 0 () () () 0 0)
24 'int_true' '' 'int_true' 19 ((VARIABLE IN UNKNOWN-PROC UNKNOWN
UNKNOWN 0 0 DUMMY) (REAL 8 0 0 REAL ()) 0 0 () () 0 () () () 0 0)
25 'method' '' 'method' 19 ((PROCEDURE UNKNOWN-INTENT DUMMY-PROC UNKNOWN
UNKNOWN 0 0 EXTERNAL DUMMY FUNCTION) (REAL 8 0 0 REAL ()) 0 0 () () 25 ()
() () 0 0)
)

('error_table' 0 18 'omp_destroy_lock' 0 26 'omp_destroy_nest_lock' 0 29
'omp_get_active_level' 0 32 'omp_get_ancestor_thread_num' 0 3
'omp_get_ancestor_thread_num_8' 0 2 'omp_get_dynamic' 0 38 'omp_get_level'
0 40 'omp_get_max_active_levels' 0 42 'omp_get_max_threads' 0 44
'omp_get_nested' 0 46 'omp_get_num_procs' 0 48 'omp_get_num_threads' 0
50 'omp_get_schedule' 0 7 'omp_get_schedule_8' 0 6 'omp_get_team_size' 0
5 'omp_get_team_size_8' 0 4 'omp_get_thread_limit' 0 62
'omp_get_thread_num' 0 64 'omp_get_wtick' 0 66 'omp_get_wtime' 0 68
'omp_in_parallel' 0 70 'omp_init_lock' 0 72 'omp_init_nest_lock' 0 75
'omp_integer_kind' 0 78 'omp_lib' 0 79 'omp_lib_kinds' 0 80
'omp_lock_kind' 0 81 'omp_logical_kind' 0 82 'omp_nest_lock_kind' 0 83
'omp_sched_auto' 0 84 'omp_sched_dynamic' 0 85 'omp_sched_guided' 0 86
'omp_sched_kind' 0 87 'omp_sched_static' 0 88 'omp_set_dynamic' 0 17
'omp_set_dynamic_8' 0 16 'omp_set_lock' 0 93 'omp_set_max_active_levels'
0 9 'omp_set_max_active_levels_8' 0 8 'omp_set_nest_lock' 0 100
'omp_set_nested' 0 11 'omp_set_nested_8' 0 10 'omp_set_num_threads' 0 15
'omp_set_num_threads_8' 0 14 'omp_set_schedule' 0 13 'omp_set_schedule_8'
0 12 'omp_test_lock' 0 117 'omp_test_nest_lock' 0 120 'omp_unset_lock' 0
123 'omp_unset_nest_lock' 0 126 'openmp_version' 0 129 'quadrature2' 0
130 'simpson' 0 131 'trapezoid' 0 137)
