GFORTRAN module version '6' created from mc_walk.f90 on Tue Jun 11 21:36:32 2013
MD5:33931200713368951dd12296b6f60383 -- If you edit this, you'll get what you deserve.

(() () () () () () () () () () () () () () () () () () () () () () () ()
() () ())

()

()

()

()

()

(2 '__convert_i4_r8' '(intrinsic)' '__convert_i4_r8' 1 ((PROCEDURE
UNKNOWN-INTENT UNKNOWN-PROC UNKNOWN UNKNOWN 0 0 FUNCTION ELEMENTAL PURE)
(REAL 8 0 0 REAL ()) 0 0 () () 2 () () () 0 0)
3 'ax' 'mc_walk' 'ax' 1 ((PARAMETER UNKNOWN-INTENT UNKNOWN-PROC UNKNOWN
IMPLICIT-SAVE 0 0) (REAL 8 0 0 REAL ()) 0 0 () (CONSTANT (REAL 8 0 0
REAL ()) 0 '0.00000000000000@0') () 0 () () () 0 0)
4 'ay' 'mc_walk' 'ay' 1 ((PARAMETER UNKNOWN-INTENT UNKNOWN-PROC UNKNOWN
IMPLICIT-SAVE 0 0) (REAL 8 0 0 REAL ()) 0 0 () (CONSTANT (REAL 8 0 0
REAL ()) 0 '0.66666666666668@0') () 0 () () () 0 0)
5 'bx' 'mc_walk' 'bx' 1 ((PARAMETER UNKNOWN-INTENT UNKNOWN-PROC UNKNOWN
IMPLICIT-SAVE 0 0) (REAL 8 0 0 REAL ()) 0 0 () (CONSTANT (REAL 8 0 0
REAL ()) 0 '0.10000000000000@1') () 0 () () () 0 0)
6 'by' 'mc_walk' 'by' 1 ((PARAMETER UNKNOWN-INTENT UNKNOWN-PROC UNKNOWN
IMPLICIT-SAVE 0 0) (REAL 8 0 0 REAL ()) 0 0 () (CONSTANT (REAL 8 0 0
REAL ()) 0 '0.10000000000000@1') () 0 () () () 0 0)
7 'dx' 'mc_walk' 'dx' 1 ((PARAMETER UNKNOWN-INTENT UNKNOWN-PROC UNKNOWN
IMPLICIT-SAVE 0 0) (REAL 8 0 0 REAL ()) 0 0 () (CONSTANT (REAL 8 0 0
REAL ()) 0 '0.ccccccccccccd0@-1') () 0 () () () 0 0)
8 'dy' 'mc_walk' 'dy' 1 ((PARAMETER UNKNOWN-INTENT UNKNOWN-PROC UNKNOWN
IMPLICIT-SAVE 0 0) (REAL 8 0 0 REAL ()) 0 0 () (CONSTANT (REAL 8 0 0
REAL ()) 0 '0.ccccccccccccc8@-1') () 0 () () () 0 0)
9 'many_walks' 'mc_walk' 'many_walks' 1 ((PROCEDURE UNKNOWN-INTENT
MODULE-PROC DECL UNKNOWN 0 0 SUBROUTINE) (UNKNOWN 0 0 0 UNKNOWN ()) 10 0
(11 12 13 14 15 16) () 0 () () () 0 0)
17 'mc_walk' 'mc_walk' 'mc_walk' 1 ((MODULE UNKNOWN-INTENT UNKNOWN-PROC
UNKNOWN UNKNOWN 0 0) (UNKNOWN 0 0 0 UNKNOWN ()) 0 0 () () 0 () () () 0 0)
18 'nwalks' 'mc_walk' 'nwalks' 1 ((VARIABLE UNKNOWN-INTENT UNKNOWN-PROC
UNKNOWN IMPLICIT-SAVE 0 0) (INTEGER 4 0 0 INTEGER ()) 0 0 () () 0 () ()
() 0 0)
19 'nx' 'mc_walk' 'nx' 1 ((PARAMETER UNKNOWN-INTENT UNKNOWN-PROC UNKNOWN
IMPLICIT-SAVE 0 0) (INTEGER 4 0 0 INTEGER ()) 0 0 () (CONSTANT (INTEGER
4 0 0 INTEGER ()) 0 '19') () 0 () () () 0 0)
20 'ny' 'mc_walk' 'ny' 1 ((PARAMETER UNKNOWN-INTENT UNKNOWN-PROC UNKNOWN
IMPLICIT-SAVE 0 0) (INTEGER 4 0 0 INTEGER ()) 0 0 () (CONSTANT (INTEGER
4 0 0 INTEGER ()) 0 '11') () 0 () () () 0 0)
21 'random_walk' 'mc_walk' 'random_walk' 1 ((PROCEDURE UNKNOWN-INTENT
MODULE-PROC DECL UNKNOWN 0 0 SUBROUTINE) (UNKNOWN 0 0 0 UNKNOWN ()) 22 0
(23 24 25 26 27) () 0 () () () 0 0)
28 'uboundary' 'mc_walk' 'uboundary' 1 ((PROCEDURE UNKNOWN-INTENT
MODULE-PROC DECL UNKNOWN 0 0 FUNCTION) (REAL 8 0 0 REAL ()) 29 0 (30 31)
() 28 () () () 0 0)
32 'utrue' 'mc_walk' 'utrue' 1 ((PROCEDURE UNKNOWN-INTENT MODULE-PROC
DECL UNKNOWN 0 0 FUNCTION IMPLICIT_PURE) (REAL 8 0 0 REAL ()) 33 0 (34
35) () 32 () () () 0 0)
24 'j0' '' 'j0' 22 ((VARIABLE IN UNKNOWN-PROC UNKNOWN UNKNOWN 0 0 DUMMY)
(INTEGER 4 0 0 INTEGER ()) 0 0 () () 0 () () () 0 0)
23 'i0' '' 'i0' 22 ((VARIABLE IN UNKNOWN-PROC UNKNOWN UNKNOWN 0 0 DUMMY)
(INTEGER 4 0 0 INTEGER ()) 0 0 () () 0 () () () 0 0)
25 'max_steps' '' 'max_steps' 22 ((VARIABLE IN UNKNOWN-PROC UNKNOWN
UNKNOWN 0 0 DUMMY) (INTEGER 4 0 0 INTEGER ()) 0 0 () () 0 () () () 0 0)
26 'ub' '' 'ub' 22 ((VARIABLE INOUT UNKNOWN-PROC UNKNOWN UNKNOWN 0 0
DUMMY) (REAL 8 0 0 REAL ()) 0 0 () () 0 () () () 0 0)
27 'iabort' '' 'iabort' 22 ((VARIABLE INOUT UNKNOWN-PROC UNKNOWN UNKNOWN
0 0 DUMMY) (INTEGER 4 0 0 INTEGER ()) 0 0 () () 0 () () () 0 0)
11 'i0' '' 'i0' 10 ((VARIABLE IN UNKNOWN-PROC UNKNOWN UNKNOWN 0 0 DUMMY)
(INTEGER 4 0 0 INTEGER ()) 0 0 () () 0 () () () 0 0)
12 'j0' '' 'j0' 10 ((VARIABLE IN UNKNOWN-PROC UNKNOWN UNKNOWN 0 0 DUMMY)
(INTEGER 4 0 0 INTEGER ()) 0 0 () () 0 () () () 0 0)
13 'max_steps' '' 'max_steps' 10 ((VARIABLE IN UNKNOWN-PROC UNKNOWN
UNKNOWN 0 0 DUMMY) (INTEGER 4 0 0 INTEGER ()) 0 0 () () 0 () () () 0 0)
14 'n_mc' '' 'n_mc' 10 ((VARIABLE IN UNKNOWN-PROC UNKNOWN UNKNOWN 0 0
DUMMY) (INTEGER 4 0 0 INTEGER ()) 0 0 () () 0 () () () 0 0)
15 'u_mc' '' 'u_mc' 10 ((VARIABLE OUT UNKNOWN-PROC UNKNOWN UNKNOWN 0 0
DUMMY) (REAL 8 0 0 REAL ()) 0 0 () () 0 () () () 0 0)
16 'n_success' '' 'n_success' 10 ((VARIABLE INOUT UNKNOWN-PROC UNKNOWN
UNKNOWN 0 0 DUMMY) (INTEGER 4 0 0 INTEGER ()) 0 0 () () 0 () () () 0 0)
34 'x' '' 'x' 33 ((VARIABLE IN UNKNOWN-PROC UNKNOWN UNKNOWN 0 0 DUMMY) (
REAL 8 0 0 REAL ()) 0 0 () () 0 () () () 0 0)
35 'y' '' 'y' 33 ((VARIABLE IN UNKNOWN-PROC UNKNOWN UNKNOWN 0 0 DUMMY) (
REAL 8 0 0 REAL ()) 0 0 () () 0 () () () 0 0)
30 'x' '' 'x' 29 ((VARIABLE IN UNKNOWN-PROC UNKNOWN UNKNOWN 0 0 DUMMY) (
REAL 8 0 0 REAL ()) 0 0 () () 0 () () () 0 0)
31 'y' '' 'y' 29 ((VARIABLE IN UNKNOWN-PROC UNKNOWN UNKNOWN 0 0 DUMMY) (
REAL 8 0 0 REAL ()) 0 0 () () 0 () () () 0 0)
)

('__convert_i4_r8' 0 2 'ax' 0 3 'ay' 0 4 'bx' 0 5 'by' 0 6 'dx' 0 7 'dy'
0 8 'many_walks' 0 9 'mc_walk' 0 17 'nwalks' 0 18 'nx' 0 19 'ny' 0 20
'random_walk' 0 21 'uboundary' 0 28 'utrue' 0 32)
