GFORTRAN module version '6' created from functions.f90 on Wed May  1 20:50:36 2013
MD5:d8d0c5fc3c77db49fa88032975638151 -- If you edit this, you'll get what you deserve.

(() () () () () () () () () () () () () () () () () () () () () () () ()
() () ())

()

()

()

()

()

(2 'f_sqrt' 'functions' 'f_sqrt' 1 ((PROCEDURE UNKNOWN-INTENT
MODULE-PROC DECL UNKNOWN 0 0 FUNCTION IMPLICIT_PURE) (REAL 8 0 0 REAL ())
3 0 (4) () 2 () () () 0 0)
5 'fprime_sqrt' 'functions' 'fprime_sqrt' 1 ((PROCEDURE UNKNOWN-INTENT
MODULE-PROC DECL UNKNOWN 0 0 FUNCTION IMPLICIT_PURE) (REAL 8 0 0 REAL ())
6 0 (7) () 5 () () () 0 0)
8 'functions' 'functions' 'functions' 1 ((MODULE UNKNOWN-INTENT
UNKNOWN-PROC UNKNOWN UNKNOWN 0 0) (UNKNOWN 0 0 0 UNKNOWN ()) 0 0 () () 0
() () () 0 0)
9 'gofx' 'functions' 'gofx' 1 ((PROCEDURE UNKNOWN-INTENT MODULE-PROC
DECL UNKNOWN 0 0 FUNCTION IMPLICIT_PURE) (REAL 8 0 0 REAL ()) 10 0 (11)
() 9 () () () 0 0)
12 'gprime' 'functions' 'gprime' 1 ((PROCEDURE UNKNOWN-INTENT
MODULE-PROC DECL UNKNOWN 0 0 FUNCTION IMPLICIT_PURE) (REAL 8 0 0 REAL ())
13 0 (14) () 12 () () () 0 0)
4 'x' '' 'x' 3 ((VARIABLE IN UNKNOWN-PROC UNKNOWN UNKNOWN 0 0 DUMMY) (
REAL 8 0 0 REAL ()) 0 0 () () 0 () () () 0 0)
7 'x' '' 'x' 6 ((VARIABLE IN UNKNOWN-PROC UNKNOWN UNKNOWN 0 0 DUMMY) (
REAL 8 0 0 REAL ()) 0 0 () () 0 () () () 0 0)
11 'x' '' 'x' 10 ((VARIABLE IN UNKNOWN-PROC UNKNOWN UNKNOWN 0 0 DUMMY) (
REAL 8 0 0 REAL ()) 0 0 () () 0 () () () 0 0)
14 'x' '' 'x' 13 ((VARIABLE IN UNKNOWN-PROC UNKNOWN UNKNOWN 0 0 DUMMY) (
REAL 8 0 0 REAL ()) 0 0 () () 0 () () () 0 0)
)

('f_sqrt' 0 2 'fprime_sqrt' 0 5 'functions' 0 8 'gofx' 0 9 'gprime' 0 12)
