GFORTRAN module version '6' created from quadrature_omp.f90 on Thu May  9 14:41:26 2013
MD5:8789fb902fe6ebde79ad53ceeea7d970 -- If you edit this, you'll get what you deserve.

(() () () () () () () () () () () () () () () () () () () () () () ()
() () () ())

()

()

()

()

()

(2 'error_table' 'quadrature' 'error_table' 1 ((PROCEDURE UNKNOWN-INTENT
MODULE-PROC DECL UNKNOWN 0 0 SUBROUTINE ALWAYS_EXPLICIT) (UNKNOWN 0 0 0
UNKNOWN ()) 3 0 (4 5 6 7 8) () 0 () () () 0 0)
9 'quadrature' 'quadrature' 'quadrature' 1 ((MODULE UNKNOWN-INTENT
UNKNOWN-PROC UNKNOWN UNKNOWN 0 0) (UNKNOWN 0 0 0 UNKNOWN ()) 0 0 () () 0
() () () 0 0)
10 'trapezoid' 'quadrature' 'trapezoid' 1 ((PROCEDURE UNKNOWN-INTENT
MODULE-PROC DECL UNKNOWN 0 0 SUBROUTINE) (UNKNOWN 0 0 0 UNKNOWN ()) 11 0
(12 13 14 15 16) () 0 () () () 0 0)
12 'f' '' 'f' 11 ((PROCEDURE UNKNOWN-INTENT DUMMY-PROC UNKNOWN UNKNOWN 0
0 EXTERNAL DUMMY FUNCTION) (REAL 8 0 0 REAL ()) 0 0 () () 12 () () () 0
0)
13 'a' '' 'a' 11 ((VARIABLE IN UNKNOWN-PROC UNKNOWN UNKNOWN 0 0 DUMMY) (
REAL 8 0 0 REAL ()) 0 0 () () 0 () () () 0 0)
14 'b' '' 'b' 11 ((VARIABLE IN UNKNOWN-PROC UNKNOWN UNKNOWN 0 0 DUMMY) (
REAL 8 0 0 REAL ()) 0 0 () () 0 () () () 0 0)
15 'n' '' 'n' 11 ((VARIABLE IN UNKNOWN-PROC UNKNOWN UNKNOWN 0 0 DUMMY) (
INTEGER 4 0 0 INTEGER ()) 0 0 () () 0 () () () 0 0)
16 'int_trapezoid' '' 'int_trapezoid' 11 ((VARIABLE OUT UNKNOWN-PROC
UNKNOWN UNKNOWN 0 0 DUMMY) (REAL 8 0 0 REAL ()) 0 0 () () 0 () () () 0 0)
5 'a' '' 'a' 3 ((VARIABLE IN UNKNOWN-PROC UNKNOWN UNKNOWN 0 0 DUMMY) (
REAL 8 0 0 REAL ()) 0 0 () () 0 () () () 0 0)
4 'f' '' 'f' 3 ((PROCEDURE UNKNOWN-INTENT UNKNOWN-PROC UNKNOWN UNKNOWN 0
0 EXTERNAL DUMMY FUNCTION) (REAL 8 0 0 REAL ()) 0 0 () () 0 () () () 0 0)
6 'b' '' 'b' 3 ((VARIABLE IN UNKNOWN-PROC UNKNOWN UNKNOWN 0 0 DUMMY) (
REAL 8 0 0 REAL ()) 0 0 () () 0 () () () 0 0)
7 'nvals' '' 'nvals' 3 ((VARIABLE IN UNKNOWN-PROC UNKNOWN UNKNOWN 0 0
DIMENSION DUMMY) (INTEGER 4 0 0 INTEGER ()) 0 0 () (1 0 ASSUMED_SHAPE (
CONSTANT (INTEGER 4 0 0 INTEGER ()) 0 '1') ()) 0 () () () 0 0)
8 'int_true' '' 'int_true' 3 ((VARIABLE IN UNKNOWN-PROC UNKNOWN UNKNOWN
0 0 DUMMY) (REAL 8 0 0 REAL ()) 0 0 () () 0 () () () 0 0)
)

('error_table' 0 2 'quadrature' 0 9 'trapezoid' 0 10)
