GFORTRAN module version '6' created from functions.f90 on Tue Jun 11 14:21:56 2013
MD5:652e8fb34fda9ff3dc3403767e44a67c -- If you edit this, you'll get what you deserve.

(() () () () () () () () () () () () () () () () () () () () () () () ()
() () ())

()

()

()

()

()

(2 'f' 'functions' 'f' 1 ((PROCEDURE UNKNOWN-INTENT MODULE-PROC DECL
UNKNOWN 0 0 FUNCTION) (REAL 8 0 0 REAL ()) 3 0 (4) () 2 () () () 0 0)
5 'fevals_proc' 'functions' 'fevals_proc' 1 ((VARIABLE UNKNOWN-INTENT
UNKNOWN-PROC UNKNOWN EXPLICIT-SAVE 0 0) (INTEGER 4 0 0 INTEGER ()) 0 0 ()
() 0 () () () 0 0)
6 'functions' 'functions' 'functions' 1 ((MODULE UNKNOWN-INTENT
UNKNOWN-PROC UNKNOWN UNKNOWN 0 0) (UNKNOWN 0 0 0 UNKNOWN ()) 0 0 () () 0
() () () 0 0)
7 'k' 'functions' 'k' 1 ((VARIABLE UNKNOWN-INTENT UNKNOWN-PROC UNKNOWN
EXPLICIT-SAVE 0 0) (REAL 8 0 0 REAL ()) 0 0 () () 0 () () () 0 0)
4 'x' '' 'x' 3 ((VARIABLE IN UNKNOWN-PROC UNKNOWN UNKNOWN 0 0 DUMMY) (
REAL 8 0 0 REAL ()) 0 0 () () 0 () () () 0 0)
)

('f' 0 2 'fevals_proc' 0 5 'functions' 0 6 'k' 0 7)
