GFORTRAN module version '6' created from quadrature.f90 on Tue Jun 11 14:21:56 2013
MD5:9415786aeee036ef06d3b1cf829348f6 -- If you edit this, you'll get what you deserve.

(() () () () () () () () () () () () () () () () () () () () () () () ()
() () ())

()

()

()

()

()

(2 'quadrature' 'quadrature' 'quadrature' 1 ((MODULE UNKNOWN-INTENT
UNKNOWN-PROC UNKNOWN UNKNOWN 0 0) (UNKNOWN 0 0 0 UNKNOWN ()) 0 0 () () 0
() () () 0 0)
3 'trapezoid' 'quadrature' 'trapezoid' 1 ((PROCEDURE UNKNOWN-INTENT
MODULE-PROC DECL UNKNOWN 0 0 FUNCTION) (REAL 8 0 0 REAL ()) 4 0 (5 6 7 8)
() 3 () () () 0 0)
5 'f' '' 'f' 4 ((PROCEDURE UNKNOWN-INTENT DUMMY-PROC UNKNOWN UNKNOWN 0 0
EXTERNAL DUMMY FUNCTION) (REAL 8 0 0 REAL ()) 0 0 () () 5 () () () 0 0)
6 'a' '' 'a' 4 ((VARIABLE IN UNKNOWN-PROC UNKNOWN UNKNOWN 0 0 DUMMY) (
REAL 8 0 0 REAL ()) 0 0 () () 0 () () () 0 0)
7 'b' '' 'b' 4 ((VARIABLE IN UNKNOWN-PROC UNKNOWN UNKNOWN 0 0 DUMMY) (
REAL 8 0 0 REAL ()) 0 0 () () 0 () () () 0 0)
8 'n' '' 'n' 4 ((VARIABLE IN UNKNOWN-PROC UNKNOWN UNKNOWN 0 0 DUMMY) (
INTEGER 4 0 0 INTEGER ()) 0 0 () () 0 () () () 0 0)
)

('quadrature' 0 2 'trapezoid' 0 3)
