GFORTRAN module version '6' created from quadrature_mc.f90 on Tue Jun 11 17:33:22 2013
MD5:d692fc98f79dc62feed991e275c4b416 -- If you edit this, you'll get what you deserve.

(() () () () () () () () () () () () () () () () () () () () () () () ()
() () ())

()

()

()

()

()

(2 'quad_mc' 'quadrature_mc' 'quad_mc' 1 ((PROCEDURE UNKNOWN-INTENT
MODULE-PROC DECL UNKNOWN 0 0 FUNCTION) (REAL 8 0 0 REAL ()) 3 0 (4 5 6 7
8) () 2 () () () 0 0)
9 'quadrature_mc' 'quadrature_mc' 'quadrature_mc' 1 ((MODULE
UNKNOWN-INTENT UNKNOWN-PROC UNKNOWN UNKNOWN 0 0) (UNKNOWN 0 0 0 UNKNOWN
()) 0 0 () () 0 () () () 0 0)
4 'g' '' 'g' 3 ((PROCEDURE UNKNOWN-INTENT DUMMY-PROC UNKNOWN UNKNOWN 0 0
EXTERNAL DUMMY FUNCTION) (REAL 8 0 0 REAL ()) 0 0 () () 4 () () () 0 0)
5 'a' '' 'a' 3 ((VARIABLE IN UNKNOWN-PROC UNKNOWN UNKNOWN 0 0 DIMENSION
DUMMY) (REAL 8 0 0 REAL ()) 0 0 () (1 0 EXPLICIT (CONSTANT (INTEGER 4 0
0 INTEGER ()) 0 '1') (VARIABLE (INTEGER 4 0 0 INTEGER ()) 0 7 ())) 0 ()
() () 0 0)
6 'b' '' 'b' 3 ((VARIABLE IN UNKNOWN-PROC UNKNOWN UNKNOWN 0 0 DIMENSION
DUMMY) (REAL 8 0 0 REAL ()) 0 0 () (1 0 EXPLICIT (CONSTANT (INTEGER 4 0
0 INTEGER ()) 0 '1') (VARIABLE (INTEGER 4 0 0 INTEGER ()) 0 7 ())) 0 ()
() () 0 0)
7 'ndim' '' 'ndim' 3 ((VARIABLE IN UNKNOWN-PROC UNKNOWN UNKNOWN 0 0
DUMMY) (INTEGER 4 0 0 INTEGER ()) 0 0 () () 0 () () () 0 0)
8 'npoints' '' 'npoints' 3 ((VARIABLE IN UNKNOWN-PROC UNKNOWN UNKNOWN 0
0 DUMMY) (INTEGER 4 0 0 INTEGER ()) 0 0 () () 0 () () () 0 0)
)

('quad_mc' 0 2 'quadrature_mc' 0 9)
