GFORTRAN module version '6' created from random_util.f90 on Tue Jun 11 16:53:27 2013
MD5:dcbec963ab6340ef08eaeba3d12bc3b0 -- If you edit this, you'll get what you deserve.

(() () () () () () () () () () () () () () () () () () () () () () () ()
() () ())

()

()

()

()

()

(2 'init_random_seed' 'random_util' 'init_random_seed' 1 ((PROCEDURE
UNKNOWN-INTENT MODULE-PROC DECL UNKNOWN 0 0 SUBROUTINE) (UNKNOWN 0 0 0
UNKNOWN ()) 3 0 (4) () 0 () () () 0 0)
5 'random_util' 'random_util' 'random_util' 1 ((MODULE UNKNOWN-INTENT
UNKNOWN-PROC UNKNOWN UNKNOWN 0 0) (UNKNOWN 0 0 0 UNKNOWN ()) 0 0 () () 0
() () () 0 0)
4 'seed1' '' 'seed1' 3 ((VARIABLE INOUT UNKNOWN-PROC UNKNOWN UNKNOWN 0 0
DUMMY) (INTEGER 4 0 0 INTEGER ()) 0 0 () () 0 () () () 0 0)
)

('init_random_seed' 0 2 'random_util' 0 5)
